Tools to Query the `Censys API` • censys
…
inf <- censys_get_job_status(res$job_id)

Sys.sleep(10) # giving it some time to process for the README

map(1:3, ~censys_get_job_result(inf$job_id, .)) %>% 
  map(c("rows", "f")) %>% 
  flatten() %>% 
  map("v") %>% 
  map_df(~setNames(as.list(.), c("server", "auth", "geo", "asn"))) %>% 
  count(geo, sort=TRUE)
#> # A tibble: 54 × 2
#>               geo     n
#>             <chr> <int>
#> 1   United States   645
#> 2         Germany   338
#> 3         Vietnam   233
#> 4         Austria   135
#> 5          France   127
#> 6           Japan    77
#> 7  Czech Republic    64
#> 8           Italy    60
#> 9          Russia    57
#> 10         Canada    44
#> # ... with 44 more rows
…
